alu.vcd
$date
  Mon Sep 19 14:57:49 2016
$end
$version
  GHDL v0
$end
$timescale
  1 fs
$end
$var reg 32 ! a_prima[31:0] $end
$var reg 32 " b_prima[31:0] $end
$var reg 3 # alucontrol_prima[2:0] $end
$var reg 1 $ zero_prima $end
$var reg 32 % result_prima[31:0] $end
$scope module dut $end
$var reg 32 & a[31:0] $end
$var reg 32 ' b[31:0] $end
$var reg 3 ( alucontrol[2:0] $end
$var reg 1 ) zero $end
$var reg 32 * result[31:0] $end
$upscope $end
$enddefinitions $end
#0
b11111111111111111111111111111111 !
bUUUUUUUUUUUUUUUUUUUUUUUUUUUUUUUU "
bUUU #
0$
b-------------------------------- %
b11111111111111111111111111111111 &
bUUUUUUUUUUUUUUUUUUUUUUUUUUUUUUUU '
bUUU (
0)
b-------------------------------- *
#2000000
b00000000000000000000000000000000 "
b00000000000000000000000000000000 '
#4000000
b000 #
1$
b00000000000000000000000000000000 %
b000 (
1)
b00000000000000000000000000000000 *
#6000000
b001 #
0$
b11111111111111111111111111111111 %
b001 (
0)
b11111111111111111111111111111111 *
#8000000
b010 #
b010 (
#10000000
b100 #
b100 (
#12000000
b101 #
b101 (
#14000000
b110 #
b110 (
#16000000
b111 #
1$
b00000000000000000000000000000000 %
b111 (
1)
b00000000000000000000000000000000 *
#18000000
#20000000
#22000000
b000 #
b000 (
#24000000
b001 #
0$
b11111111111111111111111111111111 %
b001 (
0)
b11111111111111111111111111111111 *
#26000000
b010 #
b010 (
#28000000
b100 #
b100 (
#30000000
b101 #
b101 (
#32000000
b110 #
b110 (
#34000000
b111 #
1$
b00000000000000000000000000000000 %
b111 (
1)
b00000000000000000000000000000000 *
#36000000
#38000000
#40000000
b000 #
b000 (
#42000000
b001 #
0$
b11111111111111111111111111111111 %
b001 (
0)
b11111111111111111111111111111111 *
#44000000
b010 #
b010 (
#46000000
b100 #
b100 (
#48000000
b101 #
b101 (
#50000000
b110 #
b110 (
